id;name;schedule_date
1;mobile Ball Intuitive;2021-07-26T16:33:53
2;Kids Kids Manors;2021-07-26T12:52:11
3;Object-based microchip invoice;2021-07-26T11:33:05
4;mobile Borders circuit;2021-07-26T17:32:49
5;card transmitting Indiana;2021-07-26T17:31:54
6;complexity web-readiness Berkshire;2021-07-27T08:23:19
7;Bike;2021-07-27T10:16:35
8;transform Saudi Legacy;2021-07-27T07:15:26
9;withdrawal;2021-07-26T14:10:53
10;Soap;2021-07-26T11:16:07
